…
```r
day_mean<-summarize(day_hist,mean(steps))
day_mean<-day_mean[complete.cases(day_mean),]
names(day_mean)<-c('dates','mean_steps_taken')
```

1. Mean Per day

```r
day_mean
```

```
## # A tibble: 53 × 2
##         dates mean_steps_taken
##        <date>            <dbl>
## 1  2012-10-02          0.43750
## 2  2012-10-03         39.41667
## 3  2012-10-04         42.06944
## 4  2012-10-05         46.15972
## 5  2012-10-06         53.54167
## 6  2012-10-07         38.24653
## 7  2012-10-09         44.48264
## 8  2012-10-10         34.37500
## 9  2012-10-11         35.77778
## 10 2012-10-12         60.35417
## # ... with 43 more rows
```
…
2. Median Per day

```r
day_median<-summarize(day_hist,median(steps))
day_median
```

```
## # A tibble: 54 × 2
##          date `median(steps)`
##        <date>           <dbl>
## 1  2012-10-02               0
## 2  2012-10-03               0
## 3  2012-10-04               0
## 4  2012-10-05               0
## 5  2012-10-06               0
## 6  2012-10-07               0
## 7  2012-10-09               0
## 8  2012-10-10               0
## 9  2012-10-11               0
## 10 2012-10-12               0
## # ... with 44 more rows
```
…
